{
  "template": "fiche_externalsite*",
  "order": 3,
  "mappings": {
    "fiche": {
      "dynamic_templates": [
        {
          "siteExterneTemplate": {
            "match_mapping_type": "string",
            "match": "site_code",
            "mapping": {
              "type": "string",
              "index": "not_analyzed"
            }
          }
        }
      ]
    }
  }
}