{
	"template": "fiche*",
	"order" : 2,
	"mappings": {
		"fiche": {
			"dynamic_templates": [
				{
					"usercode": {
						"match_mapping_type": "string",
						"match": "user_code",
						"mapping": {
							"type": "string",
							"index": "not_analyzed"
						}
					}
				},
				{
					"userid": {
						"match_mapping_type": "long",
						"match": "user_id",
						"mapping": {
							"type": "long"
						}
					}
				},
				{
					"userbirthday": {
						"match_mapping_type": "date",
						"match": "user_birthday",
						"mapping": {
							"type": "date",
							"format": "strict_date_optional_time||epoch_millis"
						}
					}
				}
			]
		}
	}
}