{
	"template": "fiche*",
	"order" : 2,
	"mappings": {
		"fiche": {
			"dynamic_templates": [
				{
					"labelcode": {
						"match_mapping_type": "string",
						"match": "label_code",
						"mapping": {
							"type": "string",
							"index": "not_analyzed"
						}
					}
				},
				{
					"labelid": {
						"match_mapping_type": "long",
						"match": "label_id",
						"mapping": {
							"type": "long",
							"index": "not_analyzed"
						}
					}
				}
			]
		}
	}
}