<?xml version="1.0" standalone="no"?>
<!DOCTYPE svg PUBLIC "-//W3C//DTD SVG 1.1//EN" "http://www.w3.org/Graphics/SVG/1.1/DTD/svg11.dtd" >
<svg xmlns="http://www.w3.org/2000/svg">
<metadata>Generated by IcoMoon</metadata>
<defs>
<font id="icomoon" horiz-adv-x="512">
<font-face units-per-em="512" ascent="480" descent="-32" />
<missing-glyph horiz-adv-x="512" />
<glyph unicode="&#x20;" d="" horiz-adv-x="256" />
<glyph unicode="&#xe600;" d="M512 184.778l-256 198.713-256-198.714v81.019l256 198.713 256-198.714zM448 192v-192h-128v128h-128v-128h-128v192l192 144z" />
<glyph unicode="&#xe601;" d="M512 176l-96 96v144h-64v-80l-96 96-256-256v-16h64v-160h160v96h64v-96h160v160h64z" />
<glyph unicode="&#xe602;" d="M437.020 405.019c48.351-48.352 74.98-112.64 74.98-181.020s-26.629-132.667-74.98-181.019c-48.353-48.351-112.64-74.98-181.020-74.98s-132.667 26.629-181.020 74.98c-48.351 48.352-74.98 112.639-74.98 181.019s26.627 132.668 74.98 181.020c48.353 48.352 112.64 74.981 181.020 74.981s132.667-26.629 181.020-74.981zM414.392 65.607c31.529 31.53 52.493 70.804 61.136 113.531-6.737-9.918-13.181-13.597-17.172 8.603-4.11 36.195-37.354 13.074-58.258 25.93-22.002-14.829-71.453 28.831-63.049-20.412 12.967-22.211 70.004 29.725 41.574-17.271-18.137-32.808-66.321-105.466-60.053-143.129 0.791-54.872-56.067-11.442-75.657 6.76-13.178 36.46-4.491 100.187-38.949 118.043-37.401 1.624-69.502 5.023-83.997 46.835-8.723 29.914 9.282 74.447 41.339 81.322 46.925 29.483 63.687-34.527 107.695-35.717 13.664 14.297 50.908 18.843 53.996 34.875-28.875 5.095 36.634 24.279-2.764 35.191-21.735-2.556-35.739-22.537-24.184-39.479-42.119-9.821-43.468 60.952-83.955 38.629-1.029-35.295-66.111-11.443-22.518-4.286 14.978 6.544-24.43 25.508-3.14 22.062 10.458 0.568 45.666 12.906 36.138 21.201 19.605 12.17 36.080-29.145 55.269 0.941 13.854 23.133-5.81 27.404-23.175 15.678-9.79 10.962 17.285 34.638 41.166 44.869 7.959 3.41 15.561 5.268 21.373 4.742 12.029-13.896 34.275-16.303 35.439 1.671-29.791 14.267-62.638 21.804-96.646 21.804-48.811 0-95.235-15.512-133.654-44.195 10.325-4.73 16.186-10.619 6.239-18.148-7.728-23.027-39.085-53.938-66.612-49.562-14.293-24.648-23.706-51.803-27.73-80.264 23.056-7.628 28.372-22.725 23.418-27.775-11.748-10.244-18.968-24.765-22.688-40.661 7.505-45.918 29.086-88.238 62.635-121.788 42.308-42.307 98.559-65.607 158.392-65.607s116.084 23.3 158.392 65.607z" />
<glyph unicode="&#xe603;" d="M448 384l-192-320-192 320z" />
<glyph unicode="&#xe604;" d="M448 352v64h-448v-352c0-17.673 14.327-32 32-32h432c26.511 0 48 21.489 48 48v272h-64zM416 64h-384v320h384v-320zM64 320h320v-32h-320zM256 256h128v-32h-128zM256 192h128v-32h-128zM256 128h96v-32h-96zM64 256h160v-160h-160z" />
<glyph unicode="&#xe605;" d="M432 480c44.182 0 80-35.817 80-80 0-18.010-5.955-34.629-16-48l-32-32-112 112 32 32c13.371 10.045 29.989 16 48 16zM32 112l-32-144 144 32 296 296-112 112-296-296zM357.789 298.211l-224-224-27.578 27.578 224 224 27.578-27.578z" />
<glyph unicode="&#xe606;" d="M192 160l64 32 224 224-32 32-224-224-32-64zM144.65 46.451c-15.816 33.364-32.833 50.381-66.198 66.197l49.548 136.396 64 38.956 192 192h-96l-192-192-96-320 320 96 192 192v96l-192-192-38.956-64z" />
<glyph unicode="&#xe607;" d="M0.004 479.979h240v-240h-240v240zM272.004 479.979h240v-240h-240v240zM0.004 207.974h240v-240h-240v240zM272.004 207.974h240v-240h-240v240z" />
<glyph unicode="&#xe608;" d="M218.503 70.919c0-37.534-23.195-67.196-88.879-69.588-38.492 21.893-70.745 53.476-93.454 91.433 11.845 29.248 48.846 51.523 91.158 51.057 12.011-0.126 23.205-2.057 33.372-5.35 27.954-19.433 50.5-31.576 56.162-53.724 1.057-4.482 1.641-9.103 1.641-13.828zM256 480c-73.97 0-140.598-31.385-187.333-81.549 18.467 10.226 40.269 16.319 63.451 16.319 33.534 0 128.219 0 128.219 0l-28.652-30.070h-33.655c23.748-13.606 36.376-41.624 36.376-72.506 0-28.346-15.708-51.19-37.89-68.529-21.64-16.901-25.746-23.983-25.746-38.367 0-12.271 25.861-30.549 37.75-39.468 41.409-31.056 49.789-50.592 49.789-89.435 0-39.363-34.468-78.552-92.933-91.871 28.174-10.669 58.713-16.524 90.624-16.524 141.385 0 256 114.615 256 256s-114.615 256-256 256zM384 288v-64h-32v64h-64v32h64v64h32v-64h64v-32h-64zM182.884 310.264c5.961-45.388-13.923-74.595-48.467-73.567-34.563 1.041-67.403 32.746-73.37 78.121-5.964 45.394 17.209 80.127 51.765 79.098 34.545-1.037 64.11-38.271 70.072-83.652zM110.443 158.966c-37.34 0-69.064-12.884-91.421-31.932-12.251 29.91-19.022 62.645-19.022 96.966 0 28.383 4.628 55.684 13.156 81.198 3.687-49.721 38.676-88.096 96.485-88.096 4.257 0 8.382 0.221 12.437 0.511-3.975-7.615-6.811-16.095-6.811-24.991 0-14.985 8.244-23.535 18.434-33.447-7.701 0-15.135-0.209-23.258-0.209z" />
<glyph unicode="&#xe609;" d="M256 480c141.385 0 256-114.615 256-256 0-130.547-97.719-238.265-224-254.013v190.013h88l8 64h-96v32c0 17.673 14.327 32 32 32h64v64h-64c-53.020 0-96-42.98-96-96v-32h-48v-64h48v-190.013c-126.281 15.748-224 123.466-224 254.013 0 141.385 114.615 256 256 256z" />
<glyph unicode="&#xe60a;" d="M256 480c-141.385 0-256-114.615-256-256s114.615-256 256-256 256 114.615 256 256-114.615 256-256 256zM403.121 299.456c0.146-3.254 0.221-6.528 0.221-9.819 0-100.311-76.354-215.982-215.979-215.982-42.868 0-82.768 12.568-116.363 34.107 5.938-0.704 11.981-1.063 18.108-1.063 35.565 0 68.295 12.138 94.275 32.497-33.217 0.61-61.25 22.561-70.912 52.716 4.637-0.884 9.392-1.361 14.283-1.361 6.923 0 13.629 0.928 19.999 2.662-34.726 6.976-60.893 37.656-60.893 74.434 0 0.32 0 0.639 0.008 0.955 10.235-5.685 21.939-9.1 34.382-9.494-20.37 13.611-33.77 36.846-33.77 63.184 0 13.911 3.744 26.952 10.278 38.162 37.439-45.927 93.374-76.146 156.462-79.314-1.294 5.559-1.965 11.351-1.965 17.302 0 41.92 33.99 75.906 75.909 75.906 21.833 0 41.562-9.218 55.409-23.97 17.29 3.404 33.537 9.721 48.206 18.42-5.668-17.727-17.705-32.603-33.376-41.997 15.355 1.834 29.984 5.916 43.597 11.952-10.175-15.224-23.045-28.593-37.879-39.297z" />
<glyph unicode="&#xe60b;" d="M256 480c-141.385 0-256-114.615-256-256s114.615-256 256-256 256 114.615 256 256-114.615 256-256 256zM160 96c-17.673 0-32 14.327-32 32s14.327 32 32 32 32-14.327 32-32-14.327-32-32-32zM248 96c0 66.168-53.832 120-120 120v48c92.636 0 168-75.364 168-168h-48zM344 96c0 57.695-22.468 111.938-63.265 152.735s-95.039 63.265-152.735 63.265v48c70.517 0 136.813-27.461 186.677-77.324 49.862-49.863 77.323-116.159 77.323-186.676h-48z" />
<glyph unicode="&#xe60c;" d="M409.6 435.2h-307.2c-28.16 0-51.2-23.040-51.2-51.2v-307.2c0-28.16 23.040-51.2 51.2-51.2h307.2c28.16 0 51.2 23.040 51.2 51.2v307.2c0 28.16-23.040 51.2-51.2 51.2zM384 204.8h-256v51.2h256v-51.2z" />
<glyph unicode="&#xe60d;" d="M409.6 435.2h-307.2c-28.16 0-51.2-23.040-51.2-51.2v-307.2c0-28.16 23.040-51.2 51.2-51.2h307.2c28.16 0 51.2 23.040 51.2 51.2v307.2c0 28.16-23.040 51.2-51.2 51.2zM384 204.8h-102.4v-102.4h-51.2v102.4h-102.4v51.2h102.4v102.4h51.2v-102.4h102.4v-51.2z" />
<glyph unicode="&#xe60e;" d="M409.6 435.2h-307.2c-28.16 0-51.2-23.040-51.2-51.2v-307.2c0-28.16 23.040-51.2 51.2-51.2h307.2c28.16 0 51.2 23.040 51.2 51.2v307.2c0 28.16-23.040 51.2-51.2 51.2zM334.361 107.801l-78.362 78.336-78.362-78.362-44.237 44.262 78.336 78.362-78.336 78.336 44.237 44.263 78.362-78.336 78.336 78.336 44.262-44.237-78.336-78.362 78.361-78.362-44.262-44.237z" />
<glyph unicode="&#xe60f;" d="M256 445.44c-118.784 0-215.040-96.307-215.040-215.040 0-118.784 96.281-215.040 215.040-215.040s215.040 96.281 215.040 215.040c0 118.758-96.281 215.040-215.040 215.040zM385.28 256.563v-52.352h-258.56v52.352h258.56z" />
<glyph unicode="&#xe610;" d="M256 445.44c-118.784 0-215.040-96.307-215.040-215.040 0-118.784 96.281-215.040 215.040-215.040s215.040 96.281 215.040 215.040c0 118.758-96.281 215.040-215.040 215.040zM282.163 204.237v-103.091h-52.327v103.091h-103.117v52.327h103.091v103.117h52.352v-103.091h103.091v-52.352h-103.091z" />
<glyph unicode="&#xe611;" d="M256 445.44c-118.784 0-215.040-96.307-215.040-215.040 0-118.784 96.281-215.040 215.040-215.040s215.040 96.281 215.040 215.040c0 118.758-96.281 215.040-215.040 215.040zM300.262 230.4l78.362-78.362-44.262-44.262-78.362 78.362-78.362-78.361-44.237 44.262 78.336 78.362-78.336 78.336 44.237 44.262 78.362-78.336 78.361 78.336 44.262-44.237-78.362-78.362z" />
<glyph unicode="&#xe612;" d="M400 416h-288c-26.51 0-48-21.49-48-48v-16h384v16c0 26.51-21.49 48-48 48zM316.16 448l7.058-50.5h-134.436l7.057 50.5h120.321zM320 480h-128c-13.2 0-25.495-10.696-27.321-23.769l-9.357-66.962c-1.827-13.073 7.478-23.769 20.678-23.769h160c13.2 0 22.505 10.696 20.679 23.769l-9.357 66.962c-1.827 13.073-14.122 23.769-27.322 23.769v0zM408 320h-304c-17.6 0-30.696-14.341-29.103-31.869l26.206-288.263c1.593-17.527 17.297-31.868 34.897-31.868h240c17.6 0 33.304 14.341 34.897 31.868l26.205 288.263c1.594 17.528-11.502 31.869-29.102 31.869zM192 32h-48l-16 224h64v-224zM288 32h-64v224h64v-224zM368 32h-48v224h64l-16-224z" />
<glyph unicode="&#xe613;" d="M32 448v-448h448v272h-48v-224h-352v352h224v48zM368 448v-64h-64v-48h64v-64h48v64h64v48h-64v64h-48z" />
<glyph unicode="&#xe614;" d="M256 480c-141.392 0-256-114.608-256-256s114.608-256 256-256c141.392 0 256 114.608 256 256s-114.608 256-256 256zM378.5 292h55.5c-0-17.5-2.75-33.5-7.5-47.5-5.25-15.25-11.75-27.25-20-36.5-9.25-10.5-20-18.75-32.5-24-13.5-5.75-28.5-8.5-44.5-8.5-13 0-26 2.25-39.5 6.5-13.75 4.25-26.5 8.75-38 13.5-19.5 8-31 12.75-34.5 14-11.25 4.25-21.5 6.5-30.5 6.5-16.75 0-29.75-5.75-39-16.5-9-10.5-13.5-25-14-43.5h-56c0 17.5 2.75 33.5 7.5 47.5 5.25 15.25 11.75 27.25 20 36.5 9.25 10.5 20 18.5 32.5 24 13 5.75 28.25 9 45 9 12.75-0 25.5-2.25 39-6.5 11-3.5 23.75-8.25 38-14 6.75-2.75 18.5-7.25 35-13.5 11.25-4.25 21.25-6.5 30-6.5 16.75 0 29.75 5.75 39 16.5 9.5 11 14.25 25.25 14.5 43z" />
<glyph unicode="&#xe615;" d="M256 480c-141.392 0-256-114.608-256-256s114.608-256 256-256c141.392 0 256 114.608 256 256s-114.608 256-256 256zM256 380.5c4 0 7.532-2.044 9.5-5.5l142.5-250c1.904-3.392 2-7.64 0-11s-5.596-5.5-9.5-5.5h-285c-3.936 0-7.516 2.14-9.5 5.5s-1.936 7.608 0 11l142.5 250c1.984 3.456 5.5 5.5 9.5 5.5zM238.5 292.5v-96h35v96h-35zM238.5 172.5v-32h35v32h-35z" />
<glyph unicode="&#xe630;" d="M463.906 480h-144.281c-26.453 0-63.398-15.303-82.102-34.007l-223.495-223.495c-18.704-18.704-18.704-49.312 0-68.016l172.455-172.453c18.704-18.705 49.311-18.705 68.015 0l223.495 223.494c18.704 18.705 34.007 55.651 34.007 82.102v144.281c0 26.452-21.643 48.094-48.094 48.094zM400 320c-26.51 0-48 21.49-48 48s21.49 48 48 48 48-21.49 48-48-21.49-48-48-48z" />
<glyph unicode="&#xe631;" d="M496 448h-112c-26.4 0-63.273-15.273-81.941-33.941l-188.118-188.118c-18.667-18.667-18.667-49.214 0-67.882l140.118-140.117c18.667-18.668 49.214-18.668 67.882 0l188.117 188.117c18.669 18.668 33.942 55.541 33.942 81.941v112c0 26.4-21.6 48-48 48zM432 288c-26.51 0-48 21.49-48 48s21.49 48 48 48 48-21.49 48-48-21.49-48-48-48zM43.313 180.687l171.189-171.189c-18.132-9.58-41.231-6.769-56.443 8.444l-140.118 140.117c-18.667 18.668-18.667 49.215 0 67.882l188.118 188.118c18.668 18.668 55.541 33.941 81.941 33.941l-244.687-244.686c-6.222-6.223-6.222-16.404 0-22.627z" horiz-adv-x="544" />
<glyph unicode="&#xe63c;" d="M352 160c-32-32-32-64-64-64s-64 32-96 64-64 64-64 96 32 32 64 64-64 128-96 128-96-96-96-96c0-64 65.75-193.75 128-256s192-128 256-128c0 0 96 64 96 96s-96 128-128 96z" />
<glyph unicode="&#xe640;" d="M464 416h-416c-26.4 0-48-21.6-48-48v-320c0-26.4 21.6-48 48-48h416c26.4 0 48 21.6 48 48v320c0 26.4-21.6 48-48 48zM199.37 204.814l-135.37-105.446v250.821l135.37-145.375zM88.19 352h335.62l-167.81-126-167.81 126zM204.644 199.151l51.356-55.151 51.355 55.151 105.277-135.151h-313.264l105.276 135.151zM312.63 204.814l135.37 145.375v-250.821l-135.37 105.446z" />
<glyph unicode="&#xe641;" d="M272 480l-48-48 48-48-112-128h-112l88-88-136-180.308v-19.692h19.692l180.308 136 88-88v112l128 112 48-48 48 48-240 240zM224 208l-32 32 112 112 32-32-112-112z" />
<glyph unicode="&#xe642;" d="M256 480c-88.366 0-160-71.634-160-160 0-160 160-352 160-352s160 192 160 352c0 88.366-71.635 160-160 160zM256 224c-53.020 0-96 42.98-96 96s42.98 96 96 96 96-42.98 96-96-42.98-96-96-96z" />
<glyph unicode="&#xe643;" d="M256 480c-88.366 0-160-71.634-160-160 0-160 160-352 160-352s160 192 160 352c0 88.366-71.635 160-160 160zM256 222c-54.124 0-98 43.876-98 98s43.876 98 98 98 98-43.876 98-98-43.876-98-98-98zM194 320c0 34.241 27.758 62 62 62s62-27.759 62-62c0-34.241-27.759-62-62-62s-62 27.759-62 62z" />
<glyph unicode="&#xe644;" d="M256 480c-141.385 0-256-114.615-256-256s114.615-256 256-256 256 114.615 256 256-114.615 256-256 256zM256 16c-114.875 0-208 93.125-208 208s93.125 208 208 208 208-93.125 208-208-93.125-208-208-208zM304 272l-144 80h-32v-32l80-144 144-80h32v32l-80 144zM256 192c-17.673 0-32 14.327-32 32s14.327 32 32 32c17.673 0 32-14.327 32-32s-14.327-32-32-32z" />
<glyph unicode="&#xe645;" d="M0 384l160 64v-384l-160-64zM352 384v-384l-160 53.333v384zM512 448v-384l-128-51.2v384z" />
<glyph unicode="&#xe646;" d="M336 384l-160 64-176-64v-384l176 64 160-64 176 64v384l-176-64zM192 407.135l128-51.2v-315.069l-128 51.199v315.070zM32 361.586l128 46.545v-315.9l-128-46.544v315.899zM480 86.414l-128-46.546v315.9l128 46.545v-315.899z" />
<glyph unicode="&#xe648;" d="M329.372 105.372l-105.372 105.373v141.255h64v-114.745l86.628-86.627zM256 480c-141.385 0-256-114.615-256-256s114.615-256 256-256 256 114.615 256 256-114.615 256-256 256zM256 32c-106.039 0-192 85.961-192 192s85.961 192 192 192c106.039 0 192-85.961 192-192s-85.961-192-192-192z" />
<glyph unicode="&#xe649;" d="M256 480c-141.385 0-256-114.615-256-256s114.615-256 256-256 256 114.615 256 256-114.615 256-256 256zM329.372 105.372l-105.372 105.373v141.255h64v-114.745l86.628-86.627-45.256-45.256z" />
<glyph unicode="&#xe64e;" d="M160 288h64v-64h-64zM256 288h64v-64h-64zM352 288h64v-64h-64zM64 96h64v-64h-64zM160 96h64v-64h-64zM256 96h64v-64h-64zM160 192h64v-64h-64zM256 192h64v-64h-64zM352 192h64v-64h-64zM64 192h64v-64h-64zM416 480v-32h-64v32h-224v-32h-64v32h-64v-512h480v512h-64zM448 0h-416v352h416v-352z" />
<glyph unicode="&#xe650;" d="M128 448h256v-64h-256zM480 352h-448c-17.6 0-32-14.4-32-32v-160c0-17.6 14.398-32 32-32h96v-128h256v128h96c17.6 0 32 14.4 32 32v160c0 17.6-14.4 32-32 32zM352 32h-192v160h192v-160zM487.2 304c0-12.813-10.387-23.2-23.199-23.2s-23.201 10.387-23.201 23.2 10.388 23.2 23.201 23.2c12.813 0 23.199-10.387 23.199-23.2z" />
<glyph unicode="&#xe666;" d="M380.931-32c56.863 103.016 66.444 260.153-156.931 254.912v-126.912l-192 192 192 192v-124.186c267.481 6.971 297.285-236.107 156.931-387.814z" />
<glyph unicode="&#xe667;" d="M288 355.814v124.186l192-192-192-192v126.912c-223.375 5.241-213.794-151.896-156.93-254.912-140.356 151.707-110.55 394.785 156.93 387.814z" />
<glyph unicode="&#xe668;" d="M131.070 480c-56.864-103.016-66.445-260.152 156.93-254.912v126.912l192-192-192-192v124.186c-267.48-6.971-297.286 236.107-156.93 387.814z" />
<glyph unicode="&#xe669;" d="M224 92.186v-124.186l-192 192 192 192v-126.912c223.375-5.24 213.794 151.896 156.931 254.912 140.355-151.707 110.55-394.785-156.931-387.814z" />
<glyph unicode="&#xe66a;" d="M256 448c141.385 0 256-93.125 256-208s-114.615-208-256-208c-13.578 0-26.905 0.867-39.912 2.522-54.989-54.989-120.625-64.85-184.088-66.298v13.458c34.268 16.789 64 47.37 64 82.318 0 4.877-0.379 9.665-1.082 14.348-57.898 38.132-94.918 96.377-94.918 161.652 0 114.875 114.615 208 256 208z" />
<glyph unicode="&#xe66b;" d="M544 29.417c0-22.75 13.014-42.454 32-52.092v-7.969c-5.313-0.727-10.736-1.112-16.25-1.112-34.004 0-64.674 14.264-86.361 37.132-13.111-3.491-27.001-5.376-41.389-5.376-79.529 0-144 57.308-144 128s64.471 128 144 128c79.529 0 144-57.308 144-128 0-27.674-9.882-53.296-26.678-74.233-3.412-7.412-5.322-15.656-5.322-24.35zM256 480c139.229 0 252.496-90.307 255.918-202.76-24.591 10.96-51.793 16.76-79.918 16.76-47.78 0-92.908-16.723-127.069-47.089-35.423-31.486-54.931-73.717-54.931-118.911 0-22.336 4.772-43.944 13.868-63.894-2.614-0.063-5.234-0.106-7.868-0.106-13.578 0-26.905 0.867-39.912 2.522-54.989-54.989-120.625-64.85-184.088-66.298v13.458c34.268 16.789 64 47.37 64 82.318 0 4.877-0.379 9.665-1.082 14.348-57.898 38.132-94.918 96.377-94.918 161.652 0 114.875 114.615 208 256 208z" horiz-adv-x="576" />
<glyph unicode="&#xe66c;" d="M240 480v0c132.548 0 240-86.957 240-194.224s-107.452-194.224-240-194.224c-12.729 0-25.223 0.81-37.417 2.355-51.553-51.347-111.086-60.554-170.583-61.907v12.567c32.126 15.677 58 44.233 58 76.867 0 4.553-0.356 9.024-1.015 13.397-54.279 35.607-88.985 89.994-88.985 150.945 0 107.267 107.452 194.224 240 194.224zM498 44.657c0-27.971 18.157-52.449 46-65.886v-10.771c-51.563 1.159-98.893 9.051-143.571 53.063-10.57-1.325-21.397-2.020-32.429-2.020-47.735 0-91.704 12.879-126.807 34.52 72.337 0.253 140.63 23.427 192.417 65.336 26.104 21.126 46.697 45.913 61.207 73.674 15.383 29.433 23.183 60.791 23.183 93.203 0 5.224-0.225 10.418-0.629 15.584 36.285-29.967 58.629-70.811 58.629-115.838 0-52.244-30.079-98.861-77.12-129.382-0.571-3.748-0.88-7.58-0.88-11.483z" horiz-adv-x="576" />
<glyph unicode="&#xe66d;" d="M256 384c-27.466 0-53.994-4.331-78.847-12.871-23.356-8.027-44.153-19.372-61.814-33.722-33.107-26.899-51.339-61.492-51.339-97.407 0-20.149 5.594-39.689 16.626-58.076 11.376-18.96 28.491-36.293 49.494-50.126 15.178-9.996 25.39-25.974 28.088-43.947 0.9-5.992 1.464-12.044 1.685-18.062 3.735 3.097 7.375 6.423 10.94 9.988 12.077 12.076 28.39 18.745 45.251 18.745 2.684 0 5.381-0.168 8.078-0.512 10.487-1.333 21.199-2.010 31.838-2.010 27.467 0 53.994 4.33 78.847 12.871 23.356 8.027 44.153 19.372 61.814 33.722 33.107 26.898 51.339 61.492 51.339 97.407s-18.232 70.508-51.339 97.407c-17.661 14.349-38.458 25.695-61.814 33.722-24.853 8.54-51.38 12.871-78.847 12.871zM256 448v0c141.385 0 256-93.125 256-208s-114.615-208-256-208c-13.578 0-26.905 0.867-39.912 2.522-54.989-54.989-120.625-64.85-184.088-66.298v13.458c34.268 16.789 64 47.37 64 82.318 0 4.877-0.379 9.665-1.082 14.348-57.898 38.132-94.918 96.377-94.918 161.652 0 114.875 114.615 208 256 208z" />
<glyph unicode="&#xe66e;" d="M544 29.417c0-22.75 13.014-42.454 32-52.092v-7.969c-5.313-0.727-10.736-1.112-16.25-1.112-34.004 0-64.674 14.264-86.361 37.132-13.111-3.491-27.001-5.376-41.389-5.376-79.529 0-144 57.308-144 128s64.471 128 144 128c79.529 0 144-57.308 144-128 0-27.674-9.882-53.296-26.678-74.233-3.412-7.412-5.322-15.656-5.322-24.35zM115.339 369.407c-33.107-26.899-51.339-61.492-51.339-97.407 0-20.149 5.594-39.689 16.626-58.075 11.376-18.96 28.491-36.293 49.494-50.126 15.178-9.996 25.39-25.974 28.088-43.947 0.9-5.992 1.464-12.044 1.685-18.062 3.735 3.097 7.375 6.423 10.94 9.988 12.077 12.076 28.39 18.745 45.251 18.745 2.684 0 5.381-0.168 8.078-0.512 10.474-1.331 21.172-2.008 31.797-2.010v-64c-13.564 0.001-26.877 0.869-39.871 2.521-54.989-54.989-120.625-64.85-184.088-66.298v13.458c34.268 16.789 64 47.37 64 82.318 0 4.877-0.379 9.665-1.082 14.348-57.898 38.132-94.918 96.377-94.918 161.652 0 114.875 114.615 208 256 208 139.229 0 252.496-90.307 255.918-202.76-20.548 9.158-42.92 14.711-66.131 16.289-5.765 28.034-22.701 54.408-49.126 75.878-17.661 14.349-38.458 25.695-61.814 33.722-24.853 8.54-51.38 12.871-78.847 12.871s-53.994-4.331-78.847-12.871c-23.356-8.027-44.153-19.372-61.814-33.722z" horiz-adv-x="576" />
<glyph unicode="&#xe66f;" d="M240 416c-25.333 0-49.791-3.975-72.693-11.814-21.462-7.347-40.557-17.718-56.751-30.823-30.022-24.295-46.556-55.401-46.556-87.587 0-17.995 5.033-35.474 14.96-51.949 10.343-17.17 25.949-32.897 45.13-45.479 15.22-9.984 25.468-25.976 28.181-43.975 0.451-2.995 0.815-6.003 1.090-9.016 1.361 1.26 2.712 2.557 4.057 3.897 12.069 12.020 28.344 18.656 45.161 18.656 2.674 0 5.359-0.168 8.047-0.509 9.68-1.226 19.562-1.848 29.374-1.848 25.333 0 49.79 3.974 72.692 11.814 21.463 7.346 40.558 17.717 56.752 30.822 30.023 24.295 46.556 55.401 46.556 87.587s-16.533 63.291-46.556 87.587c-16.194 13.106-35.289 23.476-56.752 30.823-22.902 7.839-47.359 11.814-72.692 11.814zM240 480v0c132.548 0 240-86.957 240-194.224s-107.452-194.224-240-194.224c-12.729 0-25.223 0.81-37.417 2.355-51.553-51.347-111.086-60.554-170.583-61.907v12.567c32.126 15.677 58 44.233 58 76.867 0 4.553-0.356 9.024-1.015 13.397-54.279 35.607-88.985 89.994-88.985 150.945 0 107.267 107.452 194.224 240 194.224zM498 44.657c0-27.971 18.157-52.449 46-65.886v-10.771c-51.563 1.159-98.893 9.051-143.571 53.063-10.57-1.325-21.397-2.020-32.429-2.020-47.735 0-91.704 12.879-126.807 34.52 72.337 0.253 140.63 23.427 192.417 65.336 26.104 21.126 46.697 45.913 61.207 73.674 15.383 29.433 23.183 60.791 23.183 93.203 0 5.224-0.225 10.418-0.629 15.584 36.285-29.967 58.629-70.811 58.629-115.838 0-52.244-30.079-98.861-77.12-129.382-0.571-3.748-0.88-7.58-0.88-11.483z" horiz-adv-x="576" />
<glyph unicode="&#xe670;" d="M311.413 128.632c-11.055 1.759-11.307 32.157-11.307 32.157s32.484 32.158 39.564 75.401c19.045 0 30.809 45.973 11.761 62.148 0.795 17.027 24.48 133.662-95.431 133.662s-96.225-116.635-95.432-133.662c-19.047-16.175-7.285-62.148 11.761-62.148 7.079-43.243 39.564-75.401 39.564-75.401s-0.252-30.398-11.307-32.157c-35.61-5.666-168.586-64.317-168.586-128.632h448c0 64.315-132.976 122.966-168.587 128.632z" />
<glyph unicode="&#xe671;" d="M367.497 77.313c-9.476 1.494-9.692 27.327-9.692 27.327s27.844 27.328 33.912 64.076c16.326 0 26.407 39.069 10.082 52.814 0.681 14.47 20.984 113.588-81.799 113.588s-82.479-99.118-81.799-113.588c-16.327-13.745-6.244-52.814 10.081-52.814 6.067-36.748 33.913-64.076 33.913-64.076s-0.216-25.833-9.692-27.327c-30.524-4.816-144.503-54.658-144.503-109.313h384c0 54.655-113.979 104.497-144.503 109.313zM172.027 68.595c22.047 13.575 48.813 26.154 70.769 33.712-7.876 11.216-16.647 26.468-22.165 44.531-7.703 6.283-13.972 15.266-17.999 26.301-4.033 11.052-5.561 23.426-4.304 34.842 0.902 8.196 3.239 15.833 6.825 22.544-2.175 23.293-3.707 69.017 26.224 102.366 11.607 12.933 26.278 22.23 43.85 27.843-3.137 32.38-19.58 70.385-83.227 70.385-102.782 0-82.479-99.118-81.799-113.588-16.327-13.745-6.244-52.814 10.081-52.814 6.067-36.748 33.913-64.076 33.913-64.076s-0.216-25.833-9.692-27.327c-30.524-4.817-144.503-54.659-144.503-109.314h164.798c2.355 1.537 4.753 3.070 7.229 4.595z" />
<glyph unicode="&#xe674;" d="M128 320c0 70.692 57.308 128 128 128s128-57.308 128-128c0-70.692-57.308-128-128-128s-128 57.308-128 128zM384 160h-256c-70.692 0-128-57.309-128-128v-32h512v32c0 70.691-57.308 128-128 128z" />
<glyph unicode="&#xe675;" d="M160 384c0 53.019 42.981 96 96 96s96-42.981 96-96c0-53.019-42.981-96-96-96s-96 42.981-96 96zM384.039 256h-17.712l-99.552-202.122 37.225 186.122-48 48-48-48 37.225-186.122-99.551 202.122h-17.712c-63.962 0-63.962-42.993-63.962-96v-160h384v160c0 53.007 0 96-63.961 96z" />
<glyph unicode="&#xe67f;" d="M496.131 44.302l-121.276 103.147c-12.537 11.283-25.945 16.463-36.776 15.963 28.628 33.534 45.921 77.039 45.921 124.588 0 106.039-85.961 192-192 192s-192-85.961-192-192c0-106.039 85.961-192 192-192 47.549 0 91.054 17.293 124.588 45.922-0.5-10.831 4.68-24.239 15.963-36.776l103.147-121.276c17.661-19.623 46.511-21.277 64.11-3.678s15.946 46.449-3.677 64.11zM192 160c-70.692 0-128 57.308-128 128s57.308 128 128 128 128-57.308 128-128-57.307-128-128-128z" />
<glyph unicode="&#xe680;" d="M496.131 44.302l-121.276 103.147c-12.537 11.283-25.945 16.463-36.776 15.963 28.628 33.534 45.921 77.039 45.921 124.588 0 106.039-85.961 192-192 192s-192-85.961-192-192c0-106.039 85.961-192 192-192 47.549 0 91.054 17.293 124.588 45.922-0.5-10.831 4.68-24.239 15.963-36.776l103.147-121.276c17.661-19.623 46.511-21.277 64.11-3.678s15.946 46.449-3.677 64.11zM192 160c-70.692 0-128 57.308-128 128s57.308 128 128 128 128-57.308 128-128-57.307-128-128-128zM224 384h-64v-64h-64v-64h64v-64h64v64h64v64h-64z" />
<glyph unicode="&#xe681;" d="M496.131 44.302l-121.276 103.147c-12.537 11.283-25.945 16.463-36.776 15.963 28.628 33.534 45.921 77.039 45.921 124.588 0 106.039-85.961 192-192 192s-192-85.961-192-192c0-106.039 85.961-192 192-192 47.549 0 91.054 17.293 124.588 45.922-0.5-10.831 4.68-24.239 15.963-36.776l103.147-121.276c17.661-19.623 46.511-21.277 64.11-3.678s15.946 46.449-3.677 64.11zM192 160c-70.692 0-128 57.308-128 128s57.308 128 128 128 128-57.308 128-128-57.307-128-128-128zM96 320h192v-64h-192z" />
<glyph unicode="&#xe688;" d="M416 256h-32v96c0 70.692-57.308 128-128 128s-128-57.308-128-128v-96h-32c-17.6 0-32-14.4-32-32v-224c0-17.6 14.4-32 32-32h320c17.6 0 32 14.4 32 32v224c0 17.6-14.4 32-32 32zM256 64c-17.673 0-32 14.327-32 32s14.327 32 32 32 32-14.327 32-32-14.327-32-32-32zM320 256h-128v96c0 35.29 28.71 64 64 64s64-28.71 64-64v-96z" />
<glyph unicode="&#xe68a;" d="M384 448h-64c-52.935 0-96-43.065-96-96v-96h-200c-13.2 0-24-10.8-24-24v-240c0-13.2 10.8-24 24-24h272c13.2 0 24 10.8 24 24v240c0 13.2-10.8 24-24 24h-8v96c0 17.645 14.355 32 32 32h64c17.645 0 32-14.355 32-32v-96h64v96c0 52.935-43.065 96-96 96zM192 32h-64l13.92 69.6c-8.404 5.766-13.92 15.437-13.92 26.4 0 17.673 14.327 32 32 32s32-14.327 32-32c0-10.963-5.516-20.634-13.92-26.4l13.92-69.6z" />
<glyph unicode="&#xe68b;" d="M501.467 71.062l-230.276 197.38c10.724 20.149 16.809 43.141 16.809 67.558 0 79.529-64.471 144-144 144-14.547 0-28.586-2.166-41.823-6.177l83.195-83.195c12.445-12.445 12.445-32.81 0-45.255l-50.745-50.745c-12.445-12.445-32.81-12.445-45.255 0l-83.195 83.195c-4.011-13.237-6.177-27.276-6.177-41.823 0-79.529 64.471-144 144-144 24.417 0 47.409 6.085 67.558 16.81l197.38-230.276c11.454-13.362 31.008-14.113 43.452-1.669l50.746 50.746c12.444 12.444 11.693 31.997-1.669 43.451z" />
<glyph unicode="&#xe68e;" d="M466.895 174.875c-26.863 46.527-10.708 106.152 36.076 133.244l-50.313 87.146c-14.375-8.427-31.088-13.259-48.923-13.259-53.768 0-97.354 43.873-97.354 97.995h-100.629c0.133-16.705-4.037-33.641-12.979-49.126-26.862-46.528-86.578-62.351-133.431-35.379l-50.312-87.146c14.485-8.236 27.025-20.294 35.943-35.739 26.819-46.454 10.756-105.96-35.854-133.112l50.313-87.146c14.325 8.348 30.958 13.127 48.7 13.127 53.598 0 97.072-43.596 97.35-97.479h100.627c-0.043 16.537 4.136 33.285 12.983 48.609 26.818 46.453 86.388 62.297 133.207 35.506l50.313 87.145c-14.39 8.233-26.846 20.249-35.717 35.614zM256 120.334c-57.254 0-103.668 46.412-103.668 103.667 0 57.254 46.413 103.667 103.668 103.667s103.666-46.413 103.666-103.667c-0.001-57.255-46.412-103.667-103.666-103.667z" />
<glyph unicode="&#xe68f;" d="M181.861 118.974l20.649 28.908-22.627 22.628-28.909-20.648c-5.361 2.997-11.102 5.387-17.133 7.096l-5.841 35.042h-32l-5.84-35.043c-6.031-1.709-11.772-4.099-17.133-7.096l-28.909 20.649-22.628-22.628 20.649-28.908c-2.997-5.36-5.387-11.103-7.096-17.133l-35.043-5.841v-32l35.043-5.841c1.709-6.030 4.099-11.772 7.096-17.133l-20.649-28.908 22.627-22.628 28.909 20.648c5.361-2.997 11.102-5.387 17.133-7.096l5.841-35.042h32l5.84 35.043c6.031 1.709 11.772 4.099 17.133 7.096l28.909-20.648 22.627 22.628-20.649 28.908c2.997 5.36 5.387 11.103 7.096 17.133l35.044 5.84v32l-35.043 5.841c-1.709 6.030-4.099 11.772-7.096 17.133zM112 48c-17.674 0-32 14.327-32 32s14.326 32 32 32 32-14.327 32-32-14.326-32-32-32zM512 288v32l-33.691 6.125c-0.621 4.023-1.416 7.989-2.362 11.895l28.779 18.55-12.246 29.564-33.472-7.234c-2.107 3.455-4.363 6.81-6.746 10.065l19.503 28.171-22.628 22.627-28.171-19.503c-3.256 2.383-6.61 4.638-10.065 6.747l7.234 33.472-29.564 12.247-18.55-28.779c-3.906 0.946-7.872 1.741-11.895 2.362l-6.126 33.691h-32l-6.126-33.691c-4.023-0.621-7.988-1.416-11.895-2.362l-18.549 28.779-29.564-12.246 7.234-33.472c-3.455-2.108-6.81-4.364-10.065-6.747l-28.171 19.503-22.627-22.627 19.503-28.171c-2.383-3.255-4.639-6.61-6.747-10.065l-33.472 7.234-12.246-29.564 28.779-18.55c-0.946-3.906-1.741-7.871-2.362-11.895l-33.692-6.126v-32l33.691-6.125c0.621-4.023 1.416-7.989 2.362-11.895l-28.779-18.55 12.246-29.564 33.472 7.234c2.108-3.455 4.364-6.809 6.747-10.065l-19.503-28.171 22.627-22.628 28.171 19.503c3.255-2.383 6.61-4.638 10.065-6.746l-7.234-33.472 29.564-12.246 18.551 28.779c3.905-0.946 7.871-1.741 11.894-2.362l6.126-33.692h32l6.126 33.691c4.022 0.621 7.988 1.416 11.895 2.362l18.55-28.779 29.564 12.246-7.234 33.472c3.455 2.108 6.81 4.363 10.065 6.746l28.171-19.503 22.628 22.628-19.503 28.171c2.383 3.256 4.638 6.61 6.746 10.065l33.472-7.234 12.246 29.565-28.779 18.55c0.946 3.906 1.741 7.871 2.362 11.895l33.691 6.125zM336 234.4c-38.439 0-69.6 31.161-69.6 69.6s31.16 69.6 69.6 69.6 69.6-31.161 69.6-69.6c0-38.439-31.16-69.6-69.6-69.6z" />
<glyph unicode="&#xe690;" d="M512 175.953v96.094l-73.387 12.231c-2.979 9.066-6.611 17.834-10.847 26.25l43.227 60.517-67.948 67.949-60.413-43.152c-8.455 4.277-17.269 7.944-26.384 10.951l-12.201 73.207h-96.094l-12.201-73.208c-9.115-3.007-17.929-6.674-26.383-10.951l-60.414 43.152-67.949-67.949 43.227-60.518c-4.235-8.415-7.867-17.183-10.846-26.249l-73.387-12.23v-96.094l73.559-12.26c2.98-8.984 6.605-17.674 10.821-26.015l-43.374-60.724 67.949-67.948 60.827 43.447c8.301-4.175 16.945-7.764 25.882-10.717l12.289-73.736h96.094l12.289 73.737c8.937 2.953 17.581 6.542 25.883 10.716l60.826-43.446 67.948 67.948-43.372 60.723c4.216 8.341 7.839 17.031 10.82 26.016l73.559 12.259zM256 160c-35.346 0-64 28.653-64 64s28.654 64 64 64c35.347 0 64-28.654 64-64s-28.653-64-64-64z" />
<glyph unicode="&#xe6b1;" d="M320 406.706v-67.979c18.103-7.902 34.75-19.204 49.137-33.59 30.221-30.22 46.863-70.4 46.863-113.137s-16.643-82.917-46.863-113.137c-30.22-30.22-70.399-46.863-113.137-46.863s-82.917 16.643-113.137 46.863c-30.22 30.22-46.863 70.4-46.863 113.137s16.643 82.917 46.863 113.137c14.387 14.387 31.034 25.689 49.137 33.591v67.978c-92.524-27.54-160-113.236-160-214.706 0-123.712 100.289-224 224-224s224 100.288 224 224c0 101.47-67.475 187.166-160 214.706zM224 480h64v-256h-64z" />
<glyph unicode="&#xe6b7;" d="M0 288h352v-64h-352v64zM0 384h352v-64h-352v64zM0 192h352v-64h-352v64zM0 96h352v-64h-352v64zM384 192l64-96 64 96h-128zM512 224l-64 96-64-96h128z" />
<glyph unicode="&#xe6b8;" d="M32 384h448v-96h-448zM32 256h448v-96h-448zM32 128h448v-96h-448z" />
<glyph unicode="&#xe6bb;" d="M445.502 299.97c-1.621 64.349-54.229 116.030-118.931 116.030-37.896 0-71.633-17.747-93.427-45.366-12.221 15.799-31.345 25.98-52.854 25.98-36.905 0-66.821-29.937-66.821-66.861 0-3.218 0.24-6.38 0.682-9.477-5.611 1.012-11.383 1.569-17.285 1.569-53.499 0.001-96.866-43.393-96.866-96.921 0-53.531 43.367-96.924 96.865-96.924h49.88l109.255-109.255 109.255 109.255 59.741 0.006c48.069 0.092 87.004 39.106 87.004 87.223 0 41.045-28.339 75.45-66.498 84.741zM256 64l-96 96h64v96h64v-96h64l-96-96z" />
<glyph unicode="&#xe6bc;" d="M446.134 286.755c1.222 5.555 1.866 11.324 1.866 17.245 0 44.183-35.817 80-80 80-7.111 0-14.007-0.934-20.566-2.676-12.399 38.676-48.645 66.676-91.434 66.676-43.674 0-80.527-29.168-92.163-69.085-11.371 3.311-23.396 5.085-35.837 5.085-70.692 0-128-57.308-128-128 0-70.694 57.308-128 128-128h64v-96h128v96h112c44.183 0 80 35.816 80 80 0 39.36-28.427 72.081-65.866 78.755zM288 160v-96h-64v96h-80l112 112 112-112h-80z" />
<glyph unicode="&#xe6bd;" d="M448 224h-80l-112-112-112 112h-80l-64-128v-32h512v32l-64 128zM0 32h512v-32h-512v32zM288 320v128h-64v-128h-112l144-144 144 144h-112z" />
<glyph unicode="&#xe6be;" d="M0 32h512v-32h-512zM512 96v-32h-512v32l64 128h128v-64h128v64h128zM112 320l144 144 144-144h-112v-128h-64v128z" />
<glyph unicode="&#xe6bf;" d="M368 256l-128-128-128 128h80v192h96v-192zM240 128h-240v-128h480v128h-240zM448 64h-64v32h64v-32z" />
<glyph unicode="&#xe6c0;" d="M240 128h-240v-128h480v128h-240zM448 64h-64v32h64v-32zM112 320l128 128 128-128h-80v-160h-96v160z" />
<glyph unicode="&#xe6c3;" d="M476.698 442.679l-2.014 2.021c-47.074 47.067-124.097 47.067-171.163 0l-109.053-109.068c-47.067-47.066-47.067-124.088 0-171.155l2.013-2.013c3.916-3.924 8.073-7.462 12.368-10.729l39.924 39.925c-4.651 2.747-9.063 6.036-13.058 10.030l-2.021 2.021c-25.557 25.549-25.557 67.136 0 92.695l109.064 109.056c25.558 25.559 67.137 25.559 92.693 0l2.021-2.012c25.55-25.558 25.55-67.146 0-92.695l-49.343-49.343c8.566-21.154 12.624-43.7 12.269-66.193l76.302 76.302c47.067 47.068 47.067 124.089-0.002 171.158zM315.521 285.533c-3.916 3.916-8.073 7.461-12.368 10.72l-39.924-39.916c4.652-2.748 9.063-6.037 13.058-10.031l2.021-2.020c25.558-25.558 25.558-67.136 0-92.694l-109.065-109.067c-25.559-25.551-67.138-25.551-92.694 0l-2.021 2.021c-25.549 25.56-25.549 67.138 0 92.694l49.344 49.343c-8.567 21.153-12.623 43.701-12.269 66.193l-76.301-76.299c-47.068-47.066-47.068-124.089 0-171.162l2.013-2.016c47.076-47.064 124.096-47.064 171.164 0l109.055 109.059c47.067 47.066 47.067 124.097 0 171.163l-2.013 2.012z" />
<glyph unicode="&#xe6c4;" d="M416 393.847c38.233 0 72.546 20.811 96 36.553v-297.845c-23.454-15.743-57.767-36.555-96-36.555s-72.546 11.335-96 27.078c-23.454 15.74-57.767 27.075-96 27.075s-72.545-19.458-96-35.198v297.845c23.455 15.742 57.767 35.2 96 35.2s72.546-11.334 96-27.076c23.454-15.742 57.767-27.077 96-27.077zM64 480c17.673 0 32-14.327 32-32v-480h-64v480c0 17.673 14.327 32 32 32z" />
<glyph unicode="&#xe6c5;" d="M348.916 316.476l-32.476 32.461-162.405-162.371c-26.907-26.896-26.907-70.524 0-97.422 26.902-26.896 70.53-26.896 97.437 0l194.886 194.854c44.857 44.831 44.857 117.531 0 162.363-44.833 44.852-117.556 44.852-162.391 0l-204.615-204.589c-0.145-0.152-0.306-0.288-0.438-0.423-62.551-62.548-62.551-163.928 0-226.453 62.527-62.528 163.934-62.528 226.494 0 0.137 0.137 0.258 0.284 0.41 0.438l0.016-0.017 139.666 139.646-32.493 32.46-139.665-139.631c-0.148-0.134-0.282-0.285-0.423-0.422-44.537-44.529-116.99-44.529-161.538 0-44.531 44.521-44.531 116.961 0 161.489 0.152 0.152 0.302 0.291 0.444 0.423l-0.023 0.030 204.64 204.583c26.856 26.869 70.572 26.869 97.443 0 26.856-26.867 26.856-70.574 0-97.42l-194.886-194.85c-8.968-8.961-23.527-8.961-32.486 0-8.947 8.943-8.947 23.516 0 32.46l162.403 162.391z" />
<glyph unicode="&#xe6c6;" d="M256 384c-111.659 0-208.441-65.021-256-160 47.559-94.979 144.341-160 256-160 111.657 0 208.439 65.021 256 160-47.558 94.979-144.343 160-256 160zM382.225 299.148c30.081-19.187 55.571-44.887 74.717-75.148-19.146-30.261-44.637-55.961-74.718-75.149-37.797-24.108-81.445-36.851-126.224-36.851-44.78 0-88.428 12.743-126.225 36.852-30.080 19.186-55.57 44.886-74.717 75.148 19.146 30.262 44.637 55.962 74.717 75.148 1.959 1.25 3.938 2.461 5.929 3.65-4.979-13.664-7.704-28.411-7.704-43.798 0-70.692 57.308-128 128-128s128 57.308 128 128c0 15.387-2.725 30.134-7.704 43.799 1.99-1.189 3.969-2.401 5.929-3.651zM256 275c0-26.51-21.49-48-48-48s-48 21.49-48 48 21.49 48 48 48 48-21.49 48-48z" />
<glyph unicode="&#xe6c9;" d="M96 480v-512l160 160 160-160v512z" />
<glyph unicode="&#xe6ca;" d="M128 416v-448l160 160 160-160v448zM384 480h-320v-448l32 32v384h288z" />
<glyph unicode="&#xe6ce;" d="M512 281.475l-176.89 25.704-79.11 160.291-79.108-160.291-176.892-25.704 128-124.769-30.216-176.176 158.216 83.179 158.216-83.179-30.217 176.176 128.001 124.769zM256 103.251l-111.731-58.74 21.338 124.415-90.393 88.111 124.92 18.152 55.866 113.198 55.868-113.198 124.918-18.152-90.394-88.111 21.339-124.415-111.731 58.74z" />
<glyph unicode="&#xe6cf;" d="M512 281.475l-176.89 25.704-79.11 160.291-79.108-160.291-176.892-25.704 128-124.769-30.216-176.176 158.216 83.179 158.216-83.179-30.217 176.176 128.001 124.769zM256 103.251l-0.471-0.248 0.471 285.384 55.868-113.198 124.918-18.152-90.394-88.111 21.339-124.415-111.731 58.74z" />
<glyph unicode="&#xe6d0;" d="M512 281.475l-176.89 25.704-79.11 160.291-79.108-160.291-176.892-25.704 128-124.769-30.216-176.176 158.216 83.179 158.216-83.179-30.217 176.176 128.001 124.769z" />
<glyph unicode="&#xe6f7;" d="M256 480c-141.385 0-256-114.615-256-256s114.615-256 256-256 256 114.615 256 256-114.615 256-256 256zM256 16c-114.875 0-208 93.125-208 208s93.125 208 208 208 208-93.125 208-208-93.125-208-208-208zM224 352h64v-64h-64zM320 96h-128v32h32v96h-32v32h96v-128h32z" />
<glyph unicode="&#xe6f8;" d="M256 480c-141.385 0-256-114.615-256-256s114.615-256 256-256 256 114.615 256 256-114.615 256-256 256zM224 384h64v-64h-64v64zM320 64h-128v32h32v128h-32v32h96v-160h32v-32z" />
<glyph unicode="&#xe6fa;" d="M256 480c-141.385 0-256-114.615-256-256s114.615-256 256-256 256 114.615 256 256-114.615 256-256 256zM384 306.745l-82.744-82.745 82.744-82.744v-45.256h-45.256l-82.744 82.744-82.745-82.744h-45.255v45.256l82.745 82.744-82.745 82.745v45.255h45.255l82.745-82.745 82.744 82.745h45.256v-45.255z" />
<glyph unicode="&#xe6fb;" d="M256 480c-141.385 0-256-114.615-256-256s114.615-256 256-256 256 114.615 256 256-114.615 256-256 256zM208 64l-106 138 47 49 59-75 185 151 23-23-208-240z" />
<glyph unicode="&#xe6fd;" d="M507.331 68.67c-0.002 0.002-0.004 0.004-0.006 0.005l-155.322 155.325 155.322 155.325c0.002 0.002 0.004 0.003 0.006 0.005 1.672 1.673 2.881 3.627 3.656 5.708 2.123 5.688 0.912 12.341-3.662 16.915l-73.373 73.373c-4.574 4.573-11.225 5.783-16.914 3.66-2.080-0.775-4.035-1.984-5.709-3.655 0-0.002-0.002-0.003-0.004-0.005l-155.324-155.326-155.324 155.325c-0.002 0.002-0.003 0.003-0.005 0.005-1.673 1.671-3.627 2.88-5.707 3.655-5.69 2.124-12.341 0.913-16.915-3.66l-73.374-73.374c-4.574-4.574-5.784-11.226-3.661-16.914 0.776-2.080 1.985-4.036 3.656-5.708 0.002-0.001 0.003-0.003 0.005-0.005l155.325-155.324-155.325-155.326c-0.001-0.002-0.003-0.003-0.004-0.005-1.671-1.673-2.88-3.627-3.657-5.707-2.124-5.688-0.913-12.341 3.661-16.915l73.374-73.373c4.575-4.574 11.226-5.784 16.915-3.661 2.080 0.776 4.035 1.985 5.708 3.656 0.001 0.002 0.003 0.003 0.005 0.005l155.324 155.325 155.324-155.325c0.002-0.001 0.004-0.003 0.006-0.004 1.674-1.672 3.627-2.881 5.707-3.657 5.689-2.123 12.342-0.913 16.914 3.661l73.373 73.374c4.574 4.574 5.785 11.227 3.662 16.915-0.776 2.080-1.985 4.034-3.657 5.707z" />
<glyph unicode="&#xe6fe;" d="M432 416l-240-240-112 112-80-80 192-192 320 320z" />
<glyph unicode="&#xe6ff;" d="M198.717 21.152l-198.934 195.8 98.689 97.135 100.245-98.666 214.81 211.426 98.689-97.135-313.499-308.56zM53.956 216.952l144.762-142.481 259.328 255.241-44.518 43.816-214.81-211.426-100.245 98.667-44.517-43.817z" />
<glyph unicode="&#xe701;" d="M0 272v-96c0-8.836 7.164-16 16-16h480c8.836 0 16 7.164 16 16v96c0 8.836-7.164 16-16 16h-480c-8.836 0-16-7.164-16-16z" />
<glyph unicode="&#xe702;" d="M496 288h-176v176c0 8.836-7.164 16-16 16h-96c-8.836 0-16-7.164-16-16v-176h-176c-8.836 0-16-7.164-16-16v-96c0-8.836 7.164-16 16-16h176v-176c0-8.836 7.164-16 16-16h96c8.836 0 16 7.164 16 16v176h176c8.836 0 16 7.164 16 16v96c0 8.836-7.164 16-16 16z" />
<glyph unicode="&#xe703;" d="M192 224h-160v64h160v64l96-96-96-96zM512 480v-416l-192-96v96h-192v128h32v-96h160v288l128 64h-288v-128h-32v160z" />
<glyph unicode="&#xe704;" d="M384 160v64h-160v64h160v64l96-96zM352 192v-128h-160v-96l-192 96v416h352v-160h-32v128h-256l128-64v-288h128v96z" />
<glyph unicode="&#xe70a;" d="M96 416l320-192-320-192z" />
<glyph unicode="&#xe70b;" d="M64 416h160v-384h-160zM288 416h160v-384h-160z" />
<glyph unicode="&#xe70c;" d="M64 416h384v-384h-384z" />
<glyph unicode="&#xe70d;" d="M288 400v-160l160 160v-352l-160 160v-160l-176 176z" />
<glyph unicode="&#xe70e;" d="M256 48v160l-160-160v352l160-160v160l176-176z" />
<glyph unicode="&#xe70f;" d="M64 32v384h64v-176l160 160v-160l160 160v-352l-160 160v-160l-160 160v-176z" />
<glyph unicode="&#xe710;" d="M448 416v-384h-64v176l-160-160v160l-160-160v352l160-160v160l160-160v176z" />
<glyph unicode="&#xe711;" d="M128 32v384h64v-176l160 160v-352l-160 160v-176z" />
<glyph unicode="&#xe712;" d="M384 416v-384h-64v176l-160-160v352l160-160v176z" />
<glyph unicode="&#xe71f;" d="M0 96l128 128 256-256 128 128-256 256 127.999 128h-383.999z" />
<glyph unicode="&#xe720;" d="M256.001 480l-256.001-256h160v-255.999l192-0.001v256h160z" />
<glyph unicode="&#xe721;" d="M128 480l128.001-128-256.001-256 128-128 256 256 128-127.999v383.999z" />
<glyph unicode="&#xe722;" d="M512 224l-256 256v-160h-255.999l-0.001-192h256v-160z" />
<glyph unicode="&#xe723;" d="M512 352l-128-128-256 256-128-128 256.001-256-128-128h383.999z" />
<glyph unicode="&#xe724;" d="M256-32l256 256h-160v255.999l-192 0.001v-256h-160z" />
<glyph unicode="&#xe725;" d="M384-32l-128 128 256 256-128 128-256-256.001-128 128v-383.999z" />
<glyph unicode="&#xe726;" d="M0 224l256-256v160h255.999l0.001 192h-256v160z" />
<glyph unicode="&#xe727;" d="M64 192c0-17.674 14.327-32 32-32s32 14.326 32 32v114.746l265.373-265.374c12.496-12.496 32.758-12.496 45.254 0 6.249 6.249 9.373 14.439 9.373 22.628s-3.124 16.379-9.373 22.627l-265.373 265.373h114.746c17.673 0 32 14.327 32 32s-14.327 32-32 32h-224v-224z" />
<glyph unicode="&#xe728;" d="M438.627 278.627l-160 160c-12.496 12.497-32.757 12.497-45.254 0l-160-160c-12.497-12.497-12.497-32.758 0-45.255 12.497-12.498 32.758-12.498 45.255 0l105.372 105.373v-306.745c0-17.673 14.327-32 32-32s32 14.327 32 32v306.745l105.373-105.373c6.248-6.248 14.438-9.372 22.627-9.372s16.379 3.124 22.627 9.373c12.497 12.497 12.497 32.757 0 45.254z" />
<glyph unicode="&#xe729;" d="M416.010 416c-0.006 0-0.014 0-0.020 0h-191.99c-17.673 0-32-14.327-32-32s14.327-32 32-32h114.746l-265.373-265.373c-12.497-12.496-12.497-32.758 0-45.254 6.248-6.249 14.438-9.373 22.627-9.373s16.379 3.124 22.627 9.373l265.373 265.373v-114.746c0-17.673 14.327-32 32-32s32 14.327 32 32v224h-31.99z" />
<glyph unicode="&#xe72a;" d="M310.627 41.373l160 160c12.497 12.496 12.497 32.758 0 45.255l-160 160c-12.497 12.496-32.758 12.496-45.255 0-12.497-12.497-12.497-32.758 0-45.255l105.373-105.373h-306.745c-17.673 0-32-14.327-32-32s14.327-32 32-32h306.745l-105.373-105.373c-6.248-6.248-9.372-14.438-9.372-22.627s3.124-16.379 9.372-22.627c12.497-12.497 32.758-12.497 45.255 0z" />
<glyph unicode="&#xe72b;" d="M448 256c0 17.674-14.326 32-32 32s-32-14.326-32-32v-114.746l-265.373 265.374c-12.496 12.496-32.758 12.496-45.254 0-6.249-6.249-9.373-14.439-9.373-22.628s3.124-16.379 9.373-22.627l265.373-265.373h-114.746c-17.673 0-32-14.327-32-32s14.327-32 32-32h224v224z" />
<glyph unicode="&#xe72c;" d="M73.373 169.373l160-160c12.496-12.497 32.758-12.497 45.255 0l160 160c12.496 12.497 12.496 32.758 0 45.255-12.497 12.497-32.758 12.497-45.255 0l-105.373-105.373v306.745c0 17.673-14.327 32-32 32s-32-14.327-32-32v-306.745l-105.373 105.373c-6.248 6.248-14.438 9.372-22.627 9.372s-16.379-3.124-22.627-9.372c-12.497-12.497-12.497-32.758 0-45.255z" />
<glyph unicode="&#xe72d;" d="M288 32c17.674 0 32 14.326 32 32s-14.326 32-32 32h-114.746l265.374 265.373c12.496 12.496 12.496 32.758 0 45.254-6.249 6.249-14.439 9.373-22.628 9.373s-16.379-3.124-22.627-9.373l-265.373-265.373v114.746c0 17.673-14.327 32-32 32s-32-14.327-32-32v-224h224z" />
<glyph unicode="&#xe72e;" d="M201.373 406.627l-160-160c-12.497-12.496-12.497-32.758 0-45.254l160-160c12.497-12.496 32.758-12.496 45.255 0s12.498 32.758 0 45.254l-105.374 105.373h306.746c17.673 0 32 14.326 32 32s-14.327 32-32 32h-306.746l105.373 105.373c6.248 6.248 9.373 14.438 9.373 22.627s-3.124 16.379-9.372 22.627c-12.498 12.497-32.758 12.497-45.255 0z" />
<glyph unicode="&#xe72f;" d="M256 480c141.385 0 256-114.615 256-256s-114.615-256-256-256-256 114.615-256 256 114.615 256 256 256zM256 16c114.875 0 208 93.125 208 208s-93.125 208-208 208-208-93.125-208-208 93.125-208 208-208zM320 352c17.673 0 32-14.327 32-32s-14.327-32-32-32h-82.744l137.371-137.372c12.497-12.497 12.497-32.759 0-45.256-6.248-6.248-14.438-9.372-22.627-9.372s-16.379 3.124-22.627 9.372l-137.373 137.373v-82.745c0-17.673-14.327-32-32-32s-32 14.327-32 32v192h192z" />
<glyph unicode="&#xe730;" d="M512 224c0-141.385-114.615-256-256-256s-256 114.615-256 256 114.615 256 256 256 256-114.615 256-256zM48 224c0-114.875 93.125-208 208-208s208 93.125 208 208-93.125 208-208 208-208-93.125-208-208zM278.627 374.628l128-128.001c12.497-12.496 12.497-32.757 0-45.254s-32.758-12.497-45.255 0l-73.372 73.372v-178.745c0-17.673-14.327-32-32-32s-32 14.327-32 32v178.745l-73.372-73.373c-12.497-12.497-32.759-12.497-45.256 0-6.248 6.249-9.372 14.439-9.372 22.628s3.124 16.379 9.372 22.627l128 128.001c12.497 12.496 32.759 12.496 45.255 0z" />
<glyph unicode="&#xe731;" d="M256 480c-141.385 0-256-114.615-256-256s114.615-256 256-256 256 114.615 256 256-114.615 256-256 256zM256 16c-114.875 0-208 93.125-208 208s93.125 208 208 208 208-93.125 208-208-93.125-208-208-208zM192 352c-17.673 0-32-14.327-32-32s14.327-32 32-32h82.744l-137.371-137.372c-12.497-12.497-12.497-32.759 0-45.256 6.248-6.248 14.438-9.372 22.627-9.372s16.379 3.124 22.627 9.372l137.373 137.373v-82.745c0-17.673 14.327-32 32-32s32 14.327 32 32v192h-192z" />
<glyph unicode="&#xe732;" d="M256 480c-141.385 0-256-114.615-256-256s114.615-256 256-256 256 114.615 256 256-114.615 256-256 256zM256 16c-114.875 0-208 93.125-208 208s93.125 208 208 208 208-93.125 208-208-93.125-208-208-208zM406.628 246.627l-128.001 128c-12.496 12.497-32.757 12.497-45.254 0s-12.497-32.758 0-45.255l73.372-73.372h-178.745c-17.673 0-32-14.327-32-32s14.327-32 32-32h178.745l-73.373-73.372c-12.497-12.497-12.497-32.759 0-45.256 6.249-6.248 14.439-9.372 22.628-9.372s16.379 3.124 22.627 9.372l128.001 128c12.496 12.497 12.496 32.759 0 45.255z" />
<glyph unicode="&#xe733;" d="M256-32c-141.385 0-256 114.615-256 256s114.615 256 256 256 256-114.615 256-256-114.615-256-256-256zM256 432c-114.875 0-208-93.125-208-208s93.125-208 208-208 208 93.125 208 208-93.125 208-208 208zM192 96c-17.673 0-32 14.327-32 32s14.327 32 32 32h82.744l-137.371 137.372c-12.497 12.497-12.497 32.759 0 45.256 6.248 6.248 14.438 9.372 22.627 9.372s16.379-3.124 22.627-9.372l137.373-137.373v82.745c0 17.673 14.327 32 32 32s32-14.327 32-32v-192h-192z" />
<glyph unicode="&#xe734;" d="M512 224c0 141.385-114.615 256-256 256s-256-114.615-256-256 114.615-256 256-256 256 114.615 256 256zM48 224c0 114.875 93.125 208 208 208s208-93.125 208-208-93.125-208-208-208-208 93.125-208 208zM278.627 73.372l128 128.001c12.497 12.496 12.497 32.757 0 45.254s-32.758 12.497-45.255 0l-73.372-73.372v178.745c0 17.673-14.327 32-32 32s-32-14.327-32-32v-178.745l-73.372 73.373c-12.497 12.497-32.759 12.497-45.256 0-6.248-6.249-9.372-14.439-9.372-22.628s3.124-16.379 9.372-22.627l128-128.001c12.497-12.496 32.759-12.496 45.255 0z" />
<glyph unicode="&#xe735;" d="M256-32c141.385 0 256 114.615 256 256s-114.615 256-256 256-256-114.615-256-256 114.615-256 256-256zM256 432c114.875 0 208-93.125 208-208s-93.125-208-208-208-208 93.125-208 208 93.125 208 208 208zM320 96c17.673 0 32 14.327 32 32s-14.327 32-32 32h-82.744l137.371 137.372c12.497 12.497 12.497 32.759 0 45.256-6.248 6.248-14.438 9.372-22.627 9.372s-16.379-3.124-22.627-9.372l-137.373-137.373v82.745c0 17.673-14.327 32-32 32s-32-14.327-32-32v-192h192z" />
<glyph unicode="&#xe736;" d="M256 480c141.385 0 256-114.615 256-256s-114.615-256-256-256-256 114.615-256 256 114.615 256 256 256zM256 16c114.875 0 208 93.125 208 208s-93.125 208-208 208-208-93.125-208-208 93.125-208 208-208zM105.372 246.627l128.001 128c12.496 12.497 32.757 12.497 45.254 0s12.497-32.758 0-45.255l-73.372-73.372h178.745c17.673 0 32-14.327 32-32s-14.327-32-32-32h-178.745l73.373-73.372c12.497-12.497 12.497-32.759 0-45.256-6.249-6.248-14.439-9.372-22.628-9.372s-16.379 3.124-22.627 9.372l-128.001 128c-12.496 12.497-12.496 32.759 0 45.255z" />
<glyph unicode="&#xe75a;" d="M96 448v-384h384v384h-384zM448 96h-320v320h320v-320zM64 32v320l-32 32v-384h384l-32 32zM214.627 137.373l96 96 73.373-73.373v192h-192l73.373-73.373-96-96z" />
<glyph unicode="&#xe75e;" d="M432 128c-22.58 0-42.96-9.369-57.506-24.415l-215.502 107.751c0.657 4.126 1.008 8.353 1.008 12.664s-0.351 8.538-1.008 12.663l215.502 107.751c14.546-15.045 34.926-24.414 57.506-24.414 44.183 0 80 35.817 80 80s-35.817 80-80 80-80-35.817-80-80c0-4.311 0.352-8.538 1.008-12.663l-215.502-107.752c-14.546 15.045-34.926 24.415-57.506 24.415-44.183 0-80-35.818-80-80 0-44.184 35.817-80 80-80 22.58 0 42.96 9.369 57.506 24.414l215.502-107.751c-0.656-4.125-1.008-8.352-1.008-12.663 0-44.184 35.817-80 80-80s80 35.816 80 80c0 44.182-35.817 80-80 80z" />
<glyph unicode="&#xe764;" d="M279.533 448c0 0-100.478 0-133.97 0-60.060 0-116.585-45.503-116.585-98.211 0-53.863 40.941-97.333 102.044-97.333 4.249 0 8.378 0.085 12.421 0.376-3.965-7.593-6.801-16.144-6.801-25.021 0-14.969 8.052-27.105 18.234-37.012-7.693 0-15.121-0.224-23.226-0.224-74.391 0.001-131.65-47.379-131.65-96.51 0-48.389 62.771-78.657 137.167-78.657 84.812 0 131.653 48.122 131.653 96.514 0 38.8-11.448 62.036-46.843 87.067-12.108 8.572-35.265 29.418-35.265 41.672 0 14.36 4.098 21.434 25.714 38.323 22.156 17.312 37.836 41.651 37.836 69.958 0 33.703-15.010 66.549-43.186 77.386h42.477l29.98 21.672zM232.74 120.271c1.063-4.486 1.642-9.103 1.642-13.814 0-39.1-25.196-69.655-97.487-69.655-51.421 0-88.558 32.552-88.558 71.65 0 38.321 46.063 70.222 97.482 69.666 12-0.127 23.184-2.058 33.335-5.345 27.913-19.413 47.938-30.381 53.586-52.502zM150.409 266.112c-34.519 1.032-67.318 38.613-73.276 83.93-5.958 45.333 17.185 80.021 51.694 78.995 34.505-1.037 67.319-37.407 73.279-82.729 5.953-45.33-17.195-81.229-51.697-80.196zM416 352v96h-32v-96h-96v-32h96v-96h32v96h96v32z" />
<glyph unicode="&#xe765;" d="M426.756 480h-342.135c-47.050 0-84.621-38.893-84.621-85.939v-340.176c0-48.211 37.571-85.885 84.621-85.885h342.134c47.048 0 85.245 37.674 85.245 85.885v340.176c0 47.046-38.197 85.939-85.244 85.939zM352 464v-80h-80v80h80zM240 464v-80h-80v80h80zM16 384v10.061c0 38.564 30.783 69.939 68.621 69.939h43.379v-80h-112zM384 160h-96v-96h-64v96h-96v64h96v96h64v-96h96v-64zM496 384h-112v80h42.756c38.182 0 69.244-31.375 69.244-69.939v-10.061z" />
<glyph unicode="&#xe766;" d="M0.403 45.168c-0.122 1.266-0.226 2.535-0.292 3.815 0.065-1.28 0.17-2.549 0.292-3.815zM117.954 197.426c46.005-1.369 76.867 46.349 68.931 106.599-7.947 60.24-51.698 108.584-97.704 109.961-46.013 1.365-76.87-44.741-68.926-105 7.941-60.234 51.676-110.187 97.699-111.56zM512 352v42.655c0 46.94-38.391 85.345-85.329 85.345h-341.328c-46.138 0-84.006-37.116-85.282-82.963 29.181 25.693 69.662 47.158 111.437 47.158 44.652 0 178.622 0 178.622 0l-39.974-33.809h-56.634c37.565-14.402 57.578-58.062 57.578-102.861 0-37.624-20.905-69.977-50.444-92.984-28.822-22.451-34.286-31.854-34.286-50.939 0-16.289 30.873-44 47.016-55.394 47.191-33.269 62.458-64.156 62.458-115.728 0-8.214-1.021-16.415-3.033-24.48h153.871c46.937 0 85.328 38.375 85.328 85.345v266.654h-96v-95.999h-32v96h-95.999v32h95.999v96h32v-96h96zM92.943 97.032c10.807 0 20.711 0.295 30.968 0.295-13.573 13.167-24.313 29.3-24.313 49.19 0 11.804 3.782 23.168 9.067 33.26-5.391-0.385-10.895-0.497-16.563-0.497-37.178 0-68.753 12.038-92.102 31.927v-33.621l0.003-100.865c26.72 12.687 58.444 20.311 92.94 20.311zM1.71 36.371c-0.556 2.729-0.983 5.503-1.271 8.317 0.287-2.814 0.715-5.588 1.271-8.317zM227.725 3.577c-7.529 29.403-34.227 43.982-71.444 69.784-13.536 4.366-28.447 6.937-44.447 7.104-44.809 0.482-86.554-17.471-110.108-44.186 7.96-38.853 42.517-68.279 83.617-68.279h143.222c0.908 5.564 1.348 11.316 1.348 17.216 0 6.267-0.767 12.396-2.188 18.361z" />
<glyph unicode="&#xe767;" d="M218.503 70.919c0-37.534-23.195-67.196-88.879-69.588-38.492 21.893-70.745 53.476-93.454 91.433 11.845 29.248 48.846 51.523 91.158 51.057 12.011-0.126 23.205-2.057 33.372-5.35 27.954-19.433 50.5-31.576 56.162-53.724 1.057-4.482 1.641-9.103 1.641-13.828zM256 480c-73.97 0-140.598-31.385-187.333-81.549 18.467 10.226 40.269 16.319 63.451 16.319 33.534 0 128.219 0 128.219 0l-28.652-30.070h-33.655c23.748-13.606 36.376-41.624 36.376-72.506 0-28.346-15.708-51.19-37.89-68.529-21.64-16.901-25.746-23.983-25.746-38.367 0-12.271 25.861-30.549 37.75-39.468 41.409-31.056 49.789-50.592 49.789-89.435 0-39.363-34.468-78.552-92.933-91.871 28.174-10.669 58.713-16.524 90.624-16.524 141.385 0 256 114.615 256 256s-114.615 256-256 256zM384 288v-64h-32v64h-64v32h64v64h32v-64h64v-32h-64zM182.884 310.264c5.961-45.388-13.923-74.595-48.467-73.567-34.563 1.041-67.403 32.746-73.37 78.121-5.964 45.394 17.209 80.127 51.765 79.098 34.545-1.037 64.11-38.271 70.072-83.652zM110.443 158.966c-37.34 0-69.064-12.884-91.421-31.932-12.251 29.91-19.022 62.645-19.022 96.966 0 28.383 4.628 55.684 13.156 81.198 3.687-49.721 38.676-88.096 96.485-88.096 4.257 0 8.382 0.221 12.437 0.511-3.975-7.615-6.811-16.095-6.811-24.991 0-14.985 8.244-23.535 18.434-33.447-7.701 0-15.135-0.209-23.258-0.209z" />
<glyph unicode="&#xe769;" d="M287.935-32h-95.935v256h-64v88.225l64 0.029-0.104 51.976c0 71.976 19.517 115.77 104.299 115.77h70.588v-88.242h-44.115c-33.016 0-34.603-12.328-34.603-35.342l-0.131-44.162h79.345l-9.352-88.225-69.927-0.029-0.065-256z" />
<glyph unicode="&#xe76a;" d="M426.672 480h-341.33c-46.936 0-85.342-38.407-85.342-85.344v-341.313c0-46.969 38.406-85.343 85.342-85.343l341.33 0.001c46.938 0 85.328 38.373 85.328 85.344v341.311c0 46.937-38.391 85.344-85.328 85.344zM435.296 224h-83.296v-224h-96v224h-46.263v73.282h46.263v47.593c0 64.671 27.896 103.125 103.935 103.125h87.622v-79.285h-71.565c-21.241 0.035-23.876-11.076-23.876-31.756l-0.116-39.677h96l-12.704-73.282z" />
<glyph unicode="&#xe76b;" d="M256 480c141.385 0 256-114.615 256-256 0-130.547-97.719-238.265-224-254.013v190.013h88l8 64h-96v32c0 17.673 14.327 32 32 32h64v64h-64c-53.020 0-96-42.98-96-96v-32h-48v-64h48v-190.013c-126.281 15.748-224 123.466-224 254.013 0 141.385 114.615 256 256 256z" />
<glyph unicode="&#xe76d;" d="M512 382.791c-18.838-8.354-39.082-14.001-60.33-16.54 21.686 13 38.343 33.585 46.186 58.115-20.298-12.039-42.778-20.78-66.705-25.49-19.16 20.415-46.461 33.17-76.673 33.17-58.011 0-105.044-47.029-105.044-105.039 0-8.233 0.929-16.25 2.72-23.939-87.3 4.382-164.701 46.2-216.509 109.753-9.042-15.514-14.223-33.558-14.223-52.809 0-36.444 18.544-68.596 46.73-87.433-17.219 0.546-33.416 5.271-47.577 13.139-0.010-0.438-0.010-0.878-0.010-1.321 0-50.894 36.209-93.348 84.261-103-8.813-2.4-18.094-3.686-27.674-3.686-6.769 0-13.349 0.66-19.764 1.886 13.368-41.73 52.16-72.103 98.126-72.948-35.95-28.175-81.243-44.967-130.458-44.967-8.479 0-16.84 0.497-25.058 1.47 46.486-29.805 101.701-47.197 161.021-47.197 193.211 0 298.868 160.062 298.868 298.872 0 4.554-0.103 9.084-0.305 13.59 20.528 14.81 38.336 33.31 52.418 54.374z" />
<glyph unicode="&#xe76e;" d="M426.671 480h-341.328c-46.937 0-85.343-38.405-85.343-85.345v-341.311c0-46.969 38.406-85.344 85.343-85.344h341.328c46.938 0 85.329 38.375 85.329 85.345v341.31c0 46.94-38.391 85.345-85.329 85.345zM419.026 309.083c0.164-3.671 0.245-7.364 0.245-11.074 0-113.107-84.608-243.534-239.329-243.534-47.502 0-91.717 14.174-128.943 38.459 6.58-0.794 13.276-1.197 20.065-1.197 39.411 0 75.679 13.685 104.467 36.641-36.808 0.69-67.872 25.438-78.577 59.441 5.137-1 10.406-1.537 15.826-1.537 7.672 0 15.103 1.048 22.16 3.004-38.48 7.866-67.475 42.458-67.475 83.928 0 0.361 0 0.719 0.008 1.076 11.34-6.41 24.312-10.26 38.1-10.705-22.571 15.349-37.421 41.546-37.421 71.244 0 15.685 4.147 30.389 11.389 43.029 41.487-51.785 103.468-85.86 173.377-89.431-1.435 6.266-2.179 12.798-2.179 19.507 0 47.269 37.663 85.59 84.115 85.59 24.195 0 46.059-10.393 61.401-27.029 19.16 3.838 37.162 10.96 53.416 20.771-6.281-19.988-19.617-36.761-36.983-47.355 17.013 2.069 33.226 6.67 48.31 13.477-11.273-17.162-25.535-32.238-41.972-44.305z" />
<glyph unicode="&#xe76f;" d="M256 480c-141.385 0-256-114.615-256-256s114.615-256 256-256 256 114.615 256 256-114.615 256-256 256zM403.121 299.456c0.146-3.254 0.221-6.528 0.221-9.819 0-100.311-76.354-215.982-215.979-215.982-42.868 0-82.768 12.568-116.363 34.107 5.938-0.704 11.981-1.063 18.108-1.063 35.565 0 68.295 12.138 94.275 32.497-33.217 0.61-61.25 22.561-70.912 52.716 4.637-0.884 9.392-1.361 14.283-1.361 6.923 0 13.629 0.928 19.999 2.662-34.726 6.976-60.893 37.656-60.893 74.434 0 0.32 0 0.639 0.008 0.955 10.235-5.685 21.939-9.1 34.382-9.494-20.37 13.611-33.77 36.846-33.77 63.184 0 13.911 3.744 26.952 10.278 38.162 37.439-45.927 93.374-76.146 156.462-79.314-1.294 5.559-1.965 11.351-1.965 17.302 0 41.92 33.99 75.906 75.909 75.906 21.833 0 41.562-9.218 55.409-23.97 17.29 3.404 33.537 9.721 48.206 18.42-5.668-17.727-17.705-32.603-33.376-41.997 15.355 1.834 29.984 5.916 43.597 11.952-10.175-15.224-23.045-28.593-37.879-39.297z" />
<glyph unicode="&#xe770;" d="M68.147 104.535c-37.598 0-68.146-30.667-68.146-68.038 0-37.577 30.55-67.901 68.146-67.901 37.733 0 68.247 30.324 68.247 67.901-0.001 37.371-30.512 68.038-68.247 68.038zM0.078 306.035v-98.129c63.892 0 123.979-24.986 169.229-70.256 45.192-45.159 70.141-105.518 70.141-169.65h98.561c-0.001 186.41-151.641 338.035-337.931 338.035zM0.194 480v-98.178c227.891 0 413.378-185.667 413.378-413.822h98.428c0 282.235-229.627 512-511.806 512z" />
<glyph unicode="&#xe771;" d="M426.67 480h-341.327c-46.938 0-85.343-38.406-85.343-85.344v-341.314c0-46.967 38.406-85.342 85.344-85.342h341.326c46.938 0 85.33 38.374 85.33 85.342v341.314c0 46.938-38.392 85.344-85.33 85.344zM139.472 64.376c-23.985 0-43.472 19.346-43.472 43.314 0 23.842 19.486 43.406 43.472 43.406 24.079 0 43.53-19.564 43.53-43.406-0.001-23.968-19.452-43.314-43.53-43.314zM248.734 64.002c0 40.905-15.904 79.409-44.73 108.222-28.857 28.875-67.188 44.813-107.952 44.813v62.593c118.826 0 215.563-96.721 215.563-215.627l-62.881-0.001zM359.814 64.002c0 145.531-118.329 263.97-263.688 263.97v62.624c180.001 0 326.473-146.562 326.473-326.596l-62.785 0.002z" />
<glyph unicode="&#xe772;" d="M256 480c-141.385 0-256-114.615-256-256s114.615-256 256-256 256 114.615 256 256-114.615 256-256 256zM160 96c-17.673 0-32 14.327-32 32s14.327 32 32 32 32-14.327 32-32-14.327-32-32-32zM248 96c0 66.168-53.832 120-120 120v48c92.636 0 168-75.364 168-168h-48zM344 96c0 57.695-22.468 111.938-63.265 152.735s-95.039 63.265-152.735 63.265v48c70.517 0 136.813-27.461 186.677-77.324 49.862-49.863 77.323-116.159 77.323-186.676h-48z" />
<glyph unicode="&#xe792;" d="M288.016 256l-0.001-117.092c0-29.709-0.385-46.828 2.765-55.25 3.125-8.377 10.959-17.073 19.495-22.101 11.342-6.794 24.271-10.188 38.854-10.188 25.927 0 41.239 3.424 66.871 20.27v-76.972c-21.85-10.276-40.933-16.297-58.662-20.461-17.75-4.121-36.93-6.203-57.532-6.203-23.414 0-37.228 2.943-55.205 8.828-17.979 5.934-33.33 14.403-46.010 25.27-12.725 10.961-21.511 22.604-26.424 34.916-4.913 12.318-7.358 30.207-7.358 53.622v179.55h-68.713v72.503c20.104 6.521 42.582 15.894 56.89 28.076 14.377 12.225 25.883 26.853 34.553 43.972 8.696 17.073 14.674 38.856 17.936 65.258h82.542l-0.001-127.998h127.984v-96h-127.984z" />
<glyph unicode="&#xe793;" d="M426.69 480h-341.346c-46.939 0-85.343-38.407-85.343-85.343v-341.313c0-46.969 38.404-85.344 85.343-85.344h341.346c46.935 0 85.31 38.375 85.31 85.344v341.314c-0.004 46.935-38.379 85.342-85.31 85.342zM365.858 67.656c-15.076-7.094-28.764-12.094-41-14.969-12.248-2.845-25.48-4.279-39.701-4.279-16.156 0-25.688 2.029-38.094 6.094-12.404 4.094-23 9.936-31.75 17.436-8.779 7.564-14.843 15.599-18.233 24.097-3.392 8.502-5.078 20.846-5.078 37.002v123.901h-47.998v50.033c13.872 4.5 29.968 10.967 39.842 19.375 9.92 8.436 17.859 18.529 23.842 30.342 6.002 11.783 10.125 26.813 12.376 45.033h50.25v-81.721h81.686v-63.063h-81.689v-90.594c0-20.5-0.264-32.313 1.908-38.125 2.156-5.78 7.563-11.78 13.451-15.25 7.828-4.688 16.752-7.030 26.813-7.030 17.893 0 35.689 5.813 53.375 17.438v-55.72z" />
<glyph unicode="&#xe7b1;" d="M267.313 468.686c-6.222 6.222-18.513 11.314-27.313 11.314h-192c-8.8 0-16-7.2-16-16v-480c0-8.8 7.2-16 16-16h384c8.8 0 16 7.2 16 16v288c0 8.8-5.091 21.091-11.313 27.313l-169.374 169.373zM416 0h-352v448h175.579c1.458-0.24 4.204-1.377 5.405-2.239l168.778-168.777c0.861-1.201 1.998-3.947 2.238-5.405v-271.579zM432 480h-96c-8.8 0-10.909-5.091-4.687-11.313l105.373-105.373c6.223-6.223 11.314-4.114 11.314 4.686v96c0 8.8-7.2 16-16 16z" />
<glyph unicode="&#xe7b2;" d="M421.006 185.26c-6.824 6.723-21.957 10.283-44.986 10.586-15.589 0.172-34.351-1.201-54.085-3.964-8.837 5.099-17.946 10.647-25.094 17.329-19.231 17.958-35.284 42.886-45.288 70.297 0.652 2.56 1.207 4.81 1.724 7.106 0 0 10.833 61.53 7.965 82.333-0.395 2.853-0.637 3.681-1.404 5.898l-0.941 2.417c-2.948 6.796-8.724 13.997-17.783 13.604l-5.458 0.172c-10.1 0-18.332-5.166-20.493-12.887-6.569-24.217 0.209-60.446 12.491-107.369l-3.144-7.643c-8.794-21.438-19.815-43.030-29.539-62.079l-1.264-2.476c-10.23-20.019-19.512-37.013-27.927-51.411l-8.688-4.594c-0.632-0.334-15.522-8.209-19.014-10.322-29.628-17.691-49.261-37.77-52.518-53.708-1.036-5.085-0.265-11.593 5.007-14.607l8.403-4.229c3.645-1.826 7.489-2.751 11.427-2.751 21.102 0 45.6 26.286 79.348 85.183 38.965 12.684 83.327 23.228 122.207 29.045 29.629-16.684 66.071-28.273 89.071-28.273 4.084 0 7.606 0.389 10.466 1.148 4.411 1.168 8.129 3.683 10.396 7.096 4.463 6.716 5.367 15.966 4.156 25.438-0.361 2.812-2.606 6.288-5.035 8.661zM105.823 72.976c3.848 10.521 19.080 31.322 41.602 49.778 1.416 1.148 4.904 4.416 8.097 7.451-23.551-37.562-39.323-52.533-49.699-57.229zM239.217 380.157c6.783 0 10.642-17.097 10.962-33.127s-3.429-27.28-8.079-35.604c-3.851 12.324-5.713 31.75-5.713 44.452 0 0-0.283 24.279 2.83 24.279zM199.426 161.253c4.725 8.458 9.641 17.378 14.665 26.839 12.246 23.158 19.979 41.278 25.739 56.173 11.455-20.842 25.722-38.56 42.493-52.756 2.092-1.771 4.309-3.551 6.637-5.325-34.105-6.748-63.582-14.955-89.534-24.931zM414.452 163.174c-2.077-1.299-8.027-2.050-11.854-2.050-12.353 0-27.636 5.647-49.063 14.833 8.234 0.609 15.781 0.919 22.55 0.919 12.391 0 16.060 0.054 28.175-3.036s12.269-9.367 10.192-10.666zM451.716 380.285l-71.432 71.431c-15.556 15.556-46.284 28.284-68.284 28.284h-240c-22 0-40-18-40-40v-432c0-22 18-40 40-40h368c22 0 40 18 40 40v304c0 22-12.728 52.729-28.284 68.285zM429.089 357.657c1.565-1.565 3.125-3.487 4.64-5.657h-81.729v81.728c2.17-1.515 4.092-3.075 5.657-4.64l71.432-71.431zM448 8c0-4.336-3.664-8-8-8h-368c-4.336 0-8 3.664-8 8v432c0 4.336 3.664 8 8 8h240c2.416 0 5.127-0.305 8-0.852v-127.148h127.148c0.547-2.873 0.852-5.583 0.852-8v-304z" />
<glyph unicode="&#xe7b3;" d="M345.11 244.159c-30.334 14.326-68.986 17.21-97.417-3.024 34.57 3.302 72.479-2.419 97.553-28.562 24 27.54 62.057 32.703 96.479 29.866-28.744 19.072-66.61 16.512-96.615 1.72zM332.824 177.125c-34.189 0.789-67.217-11.586-95.55-30.052-53.588 22.794-121.368 18.562-167.001-19.491 13.165 0.467 26.003 3.723 39.028 5.396 47.591 4.744 98.294-7.071 134.256-39.912 14.886 21.771 35.822 39.121 59.826 49.961 31.537 15.26 67.080 16.842 101.41 17.26-20.844 14.324-47.308 16.977-71.969 16.838zM451.716 380.285l-71.432 71.431c-15.556 15.556-46.284 28.284-68.284 28.284h-240c-22 0-40-18-40-40v-432c0-22 18-40 40-40h368c22 0 40 18 40 40v304c0 22-12.728 52.729-28.284 68.285zM429.089 357.657c1.565-1.565 3.125-3.487 4.64-5.657h-81.729v81.728c2.17-1.515 4.092-3.075 5.657-4.64l71.432-71.431zM448 8c0-4.336-3.664-8-8-8h-368c-4.336 0-8 3.664-8 8v432c0 4.336 3.664 8 8 8h240c2.416 0 5.127-0.305 8-0.852v-127.148h127.148c0.547-2.873 0.852-5.583 0.852-8v-304z" />
<glyph unicode="&#xe7b4;" d="M319.889 242.054h22.106l-25.506-113.089-33.163 159.005h-53.275l-38.557-159.005-28.908 159.005h-55.697l56.546-255.941h54.419l38.147 151.354 34.128-151.354h50.168l64.815 255.941h-85.223zM451.716 380.285l-71.432 71.431c-15.556 15.556-46.284 28.284-68.284 28.284h-240c-22 0-40-18-40-40v-432c0-22 18-40 40-40h368c22 0 40 18 40 40v304c0 22-12.728 52.729-28.284 68.285zM429.089 357.657c1.565-1.565 3.125-3.487 4.64-5.657h-81.729v81.728c2.17-1.515 4.092-3.075 5.657-4.64l71.432-71.431zM448 8c0-4.336-3.664-8-8-8h-368c-4.336 0-8 3.664-8 8v432c0 4.336 3.664 8 8 8h240c2.416 0 5.127-0.305 8-0.852v-127.148h127.148c0.547-2.873 0.852-5.583 0.852-8v-304z" />
<glyph unicode="&#xe7b5;" d="M371.514 288h-67.647l-47.866-70.516-47.87 70.516h-67.644l81.081-121.232-91.487-134.768h131.12v45.788h-30.278l25.078 37.497 55.698-83.285h70.221l-91.488 134.768zM451.716 380.285l-71.432 71.431c-15.556 15.556-46.284 28.284-68.284 28.284h-240c-22 0-40-18-40-40v-432c0-22 18-40 40-40h368c22 0 40 18 40 40v304c0 22-12.728 52.729-28.284 68.285zM429.089 357.657c1.565-1.565 3.125-3.487 4.64-5.657h-81.729v81.728c2.17-1.515 4.092-3.075 5.657-4.64l71.432-71.431zM448 8c0-4.336-3.664-8-8-8h-368c-4.336 0-8 3.664-8 8v432c0 4.336 3.664 8 8 8h240c2.416 0 5.127-0.305 8-0.852v-127.148h127.148c0.547-2.873 0.852-5.583 0.852-8v-304z" />
<glyph unicode="&#xe7b6;" d="M208 416h48v-32h-48zM160 384h48v-32h-48zM208 352h48v-32h-48zM160 320h48v-32h-48zM208 288h48v-32h-48zM160 256h48v-32h-48zM208 224v-32h-48v-112c0-8.837 7.163-16 16-16h64c8.837 0 16 7.163 16 16v144h-48zM240 96h-64v32h64v-32zM451.716 380.285l-71.432 71.431c-15.556 15.556-46.284 28.284-68.284 28.284h-240c-22 0-40-18-40-40v-432c0-22 18-40 40-40h368c22 0 40 18 40 40v304c0 22-12.728 52.729-28.284 68.285zM429.089 357.657c1.565-1.565 3.125-3.487 4.64-5.657h-81.729v81.728c2.17-1.515 4.092-3.075 5.657-4.64l71.432-71.431zM448 8c0-4.336-3.664-8-8-8h-368c-4.336 0-8 3.664-8 8v432c0 4.336 3.664 8 8 8h240c2.416 0 5.127-0.305 8-0.852v-127.148h127.148c0.547-2.873 0.852-5.583 0.852-8v-304z" />
<glyph unicode="&#xe7b7;" d="M96 224h96v-32h-96v32zM96 160h96v-32h-96v32zM96 96h96v-32h-96v32zM451.716 380.285l-71.432 71.431c-15.556 15.556-46.284 28.284-68.284 28.284h-240c-22 0-40-18-40-40v-432c0-22 18-40 40-40h368c22 0 40 18 40 40v304c0 22-12.728 52.729-28.284 68.285zM429.089 357.657c1.565-1.565 3.125-3.487 4.64-5.657h-81.729v81.728c2.17-1.515 4.092-3.075 5.657-4.64l71.432-71.431zM448 8c0-4.336-3.664-8-8-8h-368c-4.336 0-8 3.664-8 8v432c0 4.336 3.664 8 8 8h240c2.416 0 5.127-0.305 8-0.852v-127.148h127.148c0.547-2.873 0.852-5.583 0.852-8v-304zM288 128h94.396c-7.413-36.516-39.693-64-78.396-64-44.183 0-80 35.817-80 80 0 38.703 27.485 70.983 64 78.396v-94.396zM336 256c44.183 0 80-35.817 80-80 0-5.479-0.554-10.83-1.604-16h-94.396v94.396c5.17 1.050 10.521 1.604 16 1.604z" />
<glyph unicode="&#xe7b8;" d="M224 192l-32 32-96-96 96-96 32 32-64 64zM288 64l32-32 96 96-96 96-32-32 64-64zM451.716 380.285l-71.432 71.431c-15.556 15.556-46.284 28.284-68.284 28.284h-240c-22 0-40-18-40-40v-432c0-22 18-40 40-40h368c22 0 40 18 40 40v304c0 22-12.728 52.729-28.284 68.285zM429.089 357.657c1.565-1.565 3.125-3.487 4.64-5.657h-81.729v81.728c2.17-1.515 4.092-3.075 5.657-4.64l71.432-71.431zM448 8c0-4.336-3.664-8-8-8h-368c-4.336 0-8 3.664-8 8v432c0 4.336 3.664 8 8 8h240c2.416 0 5.127-0.305 8-0.852v-127.148h127.148c0.547-2.873 0.852-5.583 0.852-8v-304z" />
<glyph unicode="&#xea2e;" d="M444.84 396.84c-46.804 51.108-114.077 83.16-188.84 83.16-141.385 0-256-114.615-256-256h48c0 114.875 93.125 208 208 208 61.51 0 116.771-26.709 154.848-69.153l-74.848-74.847h176v176l-67.16-67.16zM464 224c0-114.875-93.125-208-208-208-61.51 0-116.771 26.709-154.847 69.153l74.847 74.847h-176v-176l67.16 67.16c46.804-51.108 114.077-83.16 188.84-83.16 141.385 0 256 114.615 256 256h-48z" />
</font></defs></svg>