Création                           C
Modification                       M
Traduction                         D
Suppression                        S
Validation                         V
Notification                       N
Mise en ligne                      U
Suppression                        R
